%YAML 1.1
%TAG !u! tag:unity3d.com,2011:
--- !u!114 &11400000
MonoBehaviour:
  m_ObjectHideFlags: 0
  m_PrefabParentObject: {fileID: 0}
  m_PrefabInternal: {fileID: 0}
  m_GameObject: {fileID: 0}
  m_Enabled: 1
  m_EditorHideFlags: 0
  m_Script: {fileID: 11500000, guid: 932b9058e603bcd4c8162d3f48de29c3, type: 3}
  m_Name: SO_GColorSet 1
  m_EditorClassIdentifier: 
  temperatureMax: {r: 1, g: 0, b: 0, a: 0}
  temperatureMin: {r: 0.45328718, g: 0.9632353, b: 0.94213396, a: 0}
  foodMax: {r: 0, g: 0.8897059, b: 0.07976651, a: 0}
  foodMin: {r: 0.86371857, g: 0.8897059, b: 0.4186851, a: 0}
